<?xml version="1.0" encoding="UTF-8"?>
<svg width="25px" height="21px" viewBox="0 0 25 21" version="1.1" xmlns="http://www.w3.org/2000/svg" xmlns:xlink="http://www.w3.org/1999/xlink">
    <!-- Generator: Sketch 50 (54983) - http://www.bohemiancoding.com/sketch -->
    <title>Twitter</title>
    <desc>Created with Sketch.</desc>
    <defs></defs>
    <g id="Symbols" stroke="none" stroke-width="1" fill="none" fill-rule="evenodd" stroke-linecap="round" stroke-linejoin="round">
        <g id="Top-Nav-Bar" transform="translate(-953.000000, -35.000000)" fill="#70C2CA" stroke="#70C2CA">
            <g id="Twitter" transform="translate(954.000000, 36.000000)">
                <path d="M1.5,1 C3.425,3.445 6.873,5.752 11.5,6 C11.245,4.938 11.22,2.057 13.238,0.859 C14.14,0.324 14.994,0 16,0 C17.265,0 18.302,0.434 19.406,1.488 C20.305,1.357 21.983,0.636 22.381,0.353 C22.122,1.347 21.085,2.624 20.335,2.927 C21.023,2.924 22.537,2.514 23,2.271 C22.357,3.304 21.234,4.294 20.619,4.705 C21.331,11.075 15.653,18.992 7.5,19 C5.171,19.002 2.641,18.508 0,17 C2.605,17.305 5.397,16.461 7,15 C4.979,14.954 2.931,13.592 2,11.5 C3.013,11.815 3.947,11.975 4.5,11.5 C3.557,11.394 0.5,9.72 0.5,6.478 C1.203,7.059 2.214,7.66 3,7.5 C1.713,6.738 -0.156,3.837 1.5,1 Z" id="Stroke-84"></path>
            </g>
        </g>
    </g>
</svg>