<?xml version="1.0" encoding="UTF-8"?>
<svg width="46px" height="35px" viewBox="0 0 46 35" version="1.1" xmlns="http://www.w3.org/2000/svg" xmlns:xlink="http://www.w3.org/1999/xlink">
s>
    <g id="symbols" stroke="none" stroke-width="1" fill="none" fill-rule="evenodd">
        <g id="Mobile-Share-Buttons" transform="translate(-2.000000, -8.000000)" fill="#F37D90" fill-rule="nonzero">
            <g id="envelope" transform="translate(2.000000, 8.000000)">
                <path d="M45.1285156,11.5572917 C45.4789063,11.2747396 46,11.5390625 46,11.9856771 L46,30.625 C46,33.0403646 44.0683594,35 41.6875,35 L4.3125,35 C1.93164063,35 0,33.0403646 0,30.625 L0,11.9947917 C0,11.5390625 0.512109375,11.2838542 0.871484375,11.5664062 C2.88398438,13.1523437 5.55234375,15.1666667 14.7164063,21.9205729 C16.6121094,23.3242187 19.8105469,26.2773437 23,26.2591146 C26.2074219,26.2864583 29.46875,23.2695312 31.2925781,21.9205729 C40.4566406,15.1666667 43.1160156,13.1432292 45.1285156,11.5572917 Z M23,23.3333333 C25.084375,23.3697917 28.0851563,20.671875 29.5945313,19.5598958 C41.5167969,10.7825521 42.4242188,10.0169271 45.1734375,7.82942708 C45.6945313,7.41927083 46,6.78125 46,6.10677083 L46,4.375 C46,1.95963542 44.0683594,0 41.6875,0 L4.3125,0 C1.93164063,-2.59052039e-15 0,1.95963542 0,4.375 L0,6.10677083 C0,6.78125 0.30546875,7.41015625 0.8265625,7.82942708 C3.57578125,10.0078125 4.48320313,10.7825521 16.4054688,19.5598958 C17.9148438,20.671875 20.915625,23.3697917 23,23.3333333 Z" id="Shape"></path>
            </g>
        </g>
    </g>
</svg>