<?xml version="1.0" encoding="UTF-8"?>
<svg width="94px" height="205px" viewBox="0 0 94 205" version="1.1" xmlns="http://www.w3.org/2000/svg" xmlns:xlink="http://www.w3.org/1999/xlink">
    <!-- Generator: Sketch 51.2 (57519) - http://www.bohemiancoding.com/sketch -->
    <title>Group</title>
    <desc>Created with Sketch.</desc>
    <defs></defs>
    <g id="Style-Guide" stroke="none" stroke-width="1" fill="none" fill-rule="evenodd" opacity="0.501785714">
        <g id="Typography-Styles-Copy" transform="translate(-600.000000, -763.000000)" fill-rule="nonzero">
            <g id="Group" transform="translate(600.000000, 763.000000)">
                <rect id="background" fill="#FFFFDF" x="0" y="0" width="94" height="205"></rect>
                <path d="M85.3988867,51.0188679 L92.8378141,38.754717 L85.3988867,26.490566 L70.4929894,26.490566 L63.054062,38.754717 L70.4929894,51.0188679 L85.3988867,51.0188679 Z M61.8918761,38.754717 L69.9259177,25.509434 L85.9659584,25.509434 L94,38.754717 L85.9659584,52 L69.9259177,52 L61.8918761,38.754717 Z M54.4529487,51.0188679 L61.8918761,38.754717 L54.4529487,26.490566 L39.5470513,26.490566 L32.1081239,38.754717 L39.5470513,51.0188679 L54.4529487,51.0188679 Z M30.945938,38.754717 L38.9799796,25.509434 L55.0200204,25.509434 L63.054062,38.754717 L55.0200204,52 L38.9799796,52 L30.945938,38.754717 Z M23.5070106,51.0188679 L30.945938,38.754717 L23.5070106,26.490566 L8.60111332,26.490566 L1.1621859,38.754717 L8.60111332,51.0188679 L23.5070106,51.0188679 Z M0,38.754717 L8.0340416,25.509434 L24.0740823,25.509434 L32.1081239,38.754717 L24.0740823,52 L8.0340416,52 L0,38.754717 Z M70.4929894,25.509434 L85.3988867,25.509434 L92.8378141,13.245283 L85.3988867,0.981132075 L70.4929894,0.981132075 L63.054062,13.245283 L70.4929894,25.509434 Z M61.8918761,13.245283 L69.9259177,0 L85.9659584,0 L94,13.245283 L85.9659584,26.490566 L69.9259177,26.490566 L61.8918761,13.245283 Z M54.4529487,25.509434 L61.8918761,13.245283 L54.4529487,0.981132075 L39.5470513,0.981132075 L32.1081239,13.245283 L39.5470513,25.509434 L54.4529487,25.509434 Z M30.945938,13.245283 L38.9799796,0 L55.0200204,0 L63.054062,13.245283 L55.0200204,26.490566 L38.9799796,26.490566 L30.945938,13.245283 Z M8.60111332,25.509434 L23.5070106,25.509434 L30.945938,13.245283 L23.5070106,0.981132075 L8.60111332,0.981132075 L1.1621859,13.245283 L8.60111332,25.509434 Z M0,13.245283 L8.0340416,0 L24.0740823,0 L32.1081239,13.245283 L24.0740823,26.490566 L8.0340416,26.490566 L0,13.245283 Z M85.3988867,102.018868 L92.8378141,89.754717 L85.3988867,77.490566 L70.4929894,77.490566 L63.054062,89.754717 L70.4929894,102.018868 L85.3988867,102.018868 Z M61.8918761,89.754717 L69.9259177,76.509434 L85.9659584,76.509434 L94,89.754717 L85.9659584,103 L69.9259177,103 L61.8918761,89.754717 Z M54.4529487,102.018868 L61.8918761,89.754717 L54.4529487,77.490566 L39.5470513,77.490566 L32.1081239,89.754717 L39.5470513,102.018868 L54.4529487,102.018868 Z M30.945938,89.754717 L38.9799796,76.509434 L55.0200204,76.509434 L63.054062,89.754717 L55.0200204,103 L38.9799796,103 L30.945938,89.754717 Z M23.5070106,102.018868 L30.945938,89.754717 L23.5070106,77.490566 L8.60111332,77.490566 L1.1621859,89.754717 L8.60111332,102.018868 L23.5070106,102.018868 Z M0,89.754717 L8.0340416,76.509434 L24.0740823,76.509434 L32.1081239,89.754717 L24.0740823,103 L8.0340416,103 L0,89.754717 Z M70.4929894,76.509434 L85.3988867,76.509434 L92.8378141,64.245283 L85.3988867,51.9811321 L70.4929894,51.9811321 L63.054062,64.245283 L70.4929894,76.509434 Z M61.8918761,64.245283 L69.9259177,51 L85.9659584,51 L94,64.245283 L85.9659584,77.490566 L69.9259177,77.490566 L61.8918761,64.245283 Z M54.4529487,76.509434 L61.8918761,64.245283 L54.4529487,51.9811321 L39.5470513,51.9811321 L32.1081239,64.245283 L39.5470513,76.509434 L54.4529487,76.509434 Z M30.945938,64.245283 L38.9799796,51 L55.0200204,51 L63.054062,64.245283 L55.0200204,77.490566 L38.9799796,77.490566 L30.945938,64.245283 Z M8.60111332,76.509434 L23.5070106,76.509434 L30.945938,64.245283 L23.5070106,51.9811321 L8.60111332,51.9811321 L1.1621859,64.245283 L8.60111332,76.509434 Z M0,64.245283 L8.0340416,51 L24.0740823,51 L32.1081239,64.245283 L24.0740823,77.490566 L8.0340416,77.490566 L0,64.245283 Z M85.3988867,153.018868 L92.8378141,140.754717 L85.3988867,128.490566 L70.4929894,128.490566 L63.054062,140.754717 L70.4929894,153.018868 L85.3988867,153.018868 Z M61.8918761,140.754717 L69.9259177,127.509434 L85.9659584,127.509434 L94,140.754717 L85.9659584,154 L69.9259177,154 L61.8918761,140.754717 Z M54.4529487,153.018868 L61.8918761,140.754717 L54.4529487,128.490566 L39.5470513,128.490566 L32.1081239,140.754717 L39.5470513,153.018868 L54.4529487,153.018868 Z M30.945938,140.754717 L38.9799796,127.509434 L55.0200204,127.509434 L63.054062,140.754717 L55.0200204,154 L38.9799796,154 L30.945938,140.754717 Z M23.5070106,153.018868 L30.945938,140.754717 L23.5070106,128.490566 L8.60111332,128.490566 L1.1621859,140.754717 L8.60111332,153.018868 L23.5070106,153.018868 Z M0,140.754717 L8.0340416,127.509434 L24.0740823,127.509434 L32.1081239,140.754717 L24.0740823,154 L8.0340416,154 L0,140.754717 Z M70.4929894,127.509434 L85.3988867,127.509434 L92.8378141,115.245283 L85.3988867,102.981132 L70.4929894,102.981132 L63.054062,115.245283 L70.4929894,127.509434 Z M61.8918761,115.245283 L69.9259177,102 L85.9659584,102 L94,115.245283 L85.9659584,128.490566 L69.9259177,128.490566 L61.8918761,115.245283 Z M54.4529487,127.509434 L61.8918761,115.245283 L54.4529487,102.981132 L39.5470513,102.981132 L32.1081239,115.245283 L39.5470513,127.509434 L54.4529487,127.509434 Z M30.945938,115.245283 L38.9799796,102 L55.0200204,102 L63.054062,115.245283 L55.0200204,128.490566 L38.9799796,128.490566 L30.945938,115.245283 Z M8.60111332,127.509434 L23.5070106,127.509434 L30.945938,115.245283 L23.5070106,102.981132 L8.60111332,102.981132 L1.1621859,115.245283 L8.60111332,127.509434 Z M0,115.245283 L8.0340416,102 L24.0740823,102 L32.1081239,115.245283 L24.0740823,128.490566 L8.0340416,128.490566 L0,115.245283 Z M85.3988867,204.018868 L92.8378141,191.754717 L85.3988867,179.490566 L70.4929894,179.490566 L63.054062,191.754717 L70.4929894,204.018868 L85.3988867,204.018868 Z M61.8918761,191.754717 L69.9259177,178.509434 L85.9659584,178.509434 L94,191.754717 L85.9659584,205 L69.9259177,205 L61.8918761,191.754717 Z M54.4529487,204.018868 L61.8918761,191.754717 L54.4529487,179.490566 L39.5470513,179.490566 L32.1081239,191.754717 L39.5470513,204.018868 L54.4529487,204.018868 Z M30.945938,191.754717 L38.9799796,178.509434 L55.0200204,178.509434 L63.054062,191.754717 L55.0200204,205 L38.9799796,205 L30.945938,191.754717 Z M23.5070106,204.018868 L30.945938,191.754717 L23.5070106,179.490566 L8.60111332,179.490566 L1.1621859,191.754717 L8.60111332,204.018868 L23.5070106,204.018868 Z M0,191.754717 L8.0340416,178.509434 L24.0740823,178.509434 L32.1081239,191.754717 L24.0740823,205 L8.0340416,205 L0,191.754717 Z M70.4929894,178.509434 L85.3988867,178.509434 L92.8378141,166.245283 L85.3988867,153.981132 L70.4929894,153.981132 L63.054062,166.245283 L70.4929894,178.509434 Z M61.8918761,166.245283 L69.9259177,153 L85.9659584,153 L94,166.245283 L85.9659584,179.490566 L69.9259177,179.490566 L61.8918761,166.245283 Z M54.4529487,178.509434 L61.8918761,166.245283 L54.4529487,153.981132 L39.5470513,153.981132 L32.1081239,166.245283 L39.5470513,178.509434 L54.4529487,178.509434 Z M30.945938,166.245283 L38.9799796,153 L55.0200204,153 L63.054062,166.245283 L55.0200204,179.490566 L38.9799796,179.490566 L30.945938,166.245283 Z M8.60111332,178.509434 L23.5070106,178.509434 L30.945938,166.245283 L23.5070106,153.981132 L8.60111332,153.981132 L1.1621859,166.245283 L8.60111332,178.509434 Z M0,166.245283 L8.0340416,153 L24.0740823,153 L32.1081239,166.245283 L24.0740823,179.490566 L8.0340416,179.490566 L0,166.245283 Z" id="hex-shape" fill="#F1F1D0"></path>
            </g>
        </g>
    </g>
</svg>