<?xml version="1.0" standalone="no"?>
<!DOCTYPE svg PUBLIC "-//W3C//DTD SVG 1.1//EN" "http://www.w3.org/Graphics/SVG/1.1/DTD/svg11.dtd" >
<svg xmlns="http://www.w3.org/2000/svg">
<metadata></metadata>
<defs>
<font id="museo_sans900_italic" horiz-adv-x="1370" >
<font-face units-per-em="2048" ascent="1536" descent="-512" />
<missing-glyph horiz-adv-x="481" />
<glyph unicode="&#xfb01;" horiz-adv-x="1398" d="M78 0l151 778h-129l56 277h129l4 26q13 82 46.5 147.5t80.5 106.5t99 70t111 43t105 19.5t92 5.5q34 0 66 -1.5t47 -3.5l16 -2l-61 -299q-20 4 -53 4q-31 0 -59.5 -4t-60.5 -14t-53.5 -31.5t-25.5 -52.5l-2 -14h717l-205 -1055h-352l149 778h-362l-152 -778h-354z M1030 1188l53 276h347l-54 -276h-346z" />
<glyph unicode="&#xfb02;" horiz-adv-x="1445" d="M78 0l147 760h-129l56 276h129l8 45q13 72 41 130.5t63.5 98.5t81.5 70.5t90 47.5t93.5 27.5t87.5 14t77 3.5q34 0 66 -1.5t47 -3.5l16 -2l-61 -299q-20 4 -53 4q-181 0 -199 -102l-6 -33h194l-53 -276h-194l-148 -760h-354zM846 281q0 60 14 129l205 1054h354 l-196 -1015q-11 -49 -11 -80q0 -68 80 -68l43 2l-59 -307q-47 -6 -96 -6q-334 0 -334 291z" />
<glyph unicode="&#xfb03;" horiz-adv-x="2183" d="M78 0l151 778h-129l56 277h129l4 26q13 82 46.5 147.5t80.5 106.5t99 70t111 43t105 19.5t92 5.5q34 0 66 -1.5t47 -3.5l16 -2l-61 -299q-20 4 -53 4q-31 0 -59.5 -4t-60.5 -14t-53.5 -31.5t-25.5 -52.5l-2 -14h430l4 26q11 71 38 129.5t63 98t82 70t90.5 48t95 28.5 t89 14.5t77.5 3.5q34 0 66 -1.5t48 -3.5l15 -2l-62 -299q-20 4 -53 4q-31 0 -59.5 -4t-60.5 -14t-53.5 -31.5t-25.5 -52.5l-2 -14h719l-205 -1055h-352l150 778h-365l-152 -778h-354l152 778h-428l-152 -778h-354zM1815 1188l53 276h346l-53 -276h-346z" />
<glyph unicode="&#xfb04;" horiz-adv-x="2230" d="M78 0l151 778h-129l56 277h129l4 26q13 82 46.5 147.5t80.5 106.5t99 70t111 43t105 19.5t92 5.5q34 0 66 -1.5t47 -3.5l16 -2l-61 -299q-20 4 -53 4q-31 0 -59.5 -4t-60.5 -14t-53.5 -31.5t-25.5 -52.5l-2 -14h430l4 26q11 71 38 129.5t63 98t82 70t90.5 48t95 28.5 t89 14.5t77.5 3.5q34 0 66 -1.5t48 -3.5l15 -2l-62 -299q-20 4 -53 4q-31 0 -59.5 -4t-60.5 -14t-53.5 -31.5t-25.5 -52.5l-2 -14h195l-53 -277h-195l-152 -778h-354l152 778h-428l-152 -778h-354zM1630 281q0 55 15 129l204 1054h355l-197 -1015q-10 -45 -10 -80 q0 -68 80 -68l43 2l-60 -307q-47 -6 -96 -6q-334 0 -334 291z" />
<glyph horiz-adv-x="0" />
<glyph horiz-adv-x="682" />
<glyph unicode=" "  horiz-adv-x="481" />
<glyph unicode="&#x09;" horiz-adv-x="481" />
<glyph unicode="&#xa0;" horiz-adv-x="481" />
<glyph unicode="!" horiz-adv-x="745" d="M96 0l60 307h323l-59 -307h-324zM190 453l164 1011h369l-229 -1011h-304z" />
<glyph unicode="&#x22;" horiz-adv-x="847" d="M178 1004l96 491h250l-96 -491h-250zM569 1004l97 491h249l-96 -491h-250z" />
<glyph unicode="#" horiz-adv-x="1431" d="M18 369l86 245h201l74 195h-197l88 246h197l151 409h281l-151 -409h221l151 409h281l-152 -409h209l-88 -246h-209l-74 -195h205l-88 -245h-205l-135 -369h-280l135 369h-221l-136 -369h-280l135 369h-199zM586 614h221l74 195h-222z" />
<glyph unicode="$" horiz-adv-x="1222" d="M4 184l213 254q6 -5 16 -14t45 -32t72.5 -40.5t95.5 -32t117 -14.5q65 0 120.5 31.5t55.5 97.5q0 30 -30 59t-78.5 55t-106.5 56t-116 69.5t-106.5 87.5t-78.5 118t-30 153q0 127 68.5 228t175 156.5t233.5 68.5l37 184h223l-37 -192q66 -11 126 -31.5t98 -41.5 t66.5 -40.5t40.5 -31.5l13 -13l-193 -264q-5 4 -15 11t-42 25t-66.5 32t-86 25t-103.5 11q-65 0 -122.5 -33t-57.5 -94q0 -32 30.5 -61.5t79 -55.5t107 -55t117.5 -68t107.5 -86t79 -117.5t30.5 -154.5q0 -183 -142 -313.5t-360 -143.5l-33 -180h-223l37 195 q-72 14 -137 38.5t-107 50.5t-73.5 49.5t-45.5 38.5z" />
<glyph unicode="%" horiz-adv-x="1785" d="M53 0l1381 1464h325l-1380 -1464h-326zM156 1098q0 99 58.5 190t154.5 146t200 55q149 0 244.5 -93t95.5 -231q0 -100 -60.5 -189t-156.5 -141.5t-198 -52.5q-150 0 -244 89t-94 227zM418 1116q0 -39 27.5 -63.5t74.5 -24.5q49 0 88 37t39 88q0 39 -28 64.5t-74 25.5 q-48 0 -87.5 -39t-39.5 -88zM909 291q0 99 58.5 190t155 146t200.5 55q149 0 244.5 -93t95.5 -231q0 -100 -60.5 -189t-157 -141.5t-198.5 -52.5q-150 0 -244 89t-94 227zM1171 309q0 -39 28 -63.5t75 -24.5q49 0 88 37t39 88q0 39 -28.5 64.5t-74.5 25.5q-48 0 -87.5 -39 t-39.5 -88z" />
<glyph unicode="&#x26;" horiz-adv-x="1445" d="M39 397q0 121 92 232.5t227 150.5v4q-5 2 -13.5 7t-30.5 24.5t-39 43.5t-30.5 67.5t-13.5 93.5q0 98 33.5 178.5t87.5 133t126.5 89t147.5 52.5t152 16q53 0 108 -9.5t84 -19.5l29 -10l-131 -266q-34 8 -77 8q-79 0 -141 -47.5t-62 -134.5q0 -48 32.5 -79.5t92.5 -31.5 h178l35 180h352l-35 -180h182l-59 -307h-182l-27 -141q-44 -233 -199 -354.5t-401 -121.5q-242 0 -380 117t-138 305zM416 424q0 -53 42.5 -88t110.5 -35q98 0 162 47.5t78 122.5l22 121h-200q-37 0 -72 -8.5t-68.5 -26.5t-54 -52.5t-20.5 -80.5z" />
<glyph unicode="'" horiz-adv-x="462" d="M178 1004l96 491h256l-96 -491h-256z" />
<glyph unicode="(" horiz-adv-x="692" d="M111 371q0 335 104.5 623.5t333.5 541.5h301q-216 -265 -324 -563t-108 -611q0 -301 94 -557h-281q-120 273 -120 566z" />
<glyph unicode=")" horiz-adv-x="694" d="M-137 -195q216 265 324 563t108 611q0 301 -94 557h280q121 -276 121 -565q0 -335 -104.5 -624t-333.5 -542h-301z" />
<glyph unicode="*" horiz-adv-x="952" d="M121 1040l149 287l191 -92l22 229h312l-70 -229l229 94l41 -299l-245 -51l-2 -4l120 -164l-268 -180l-82 200h-4l-152 -198l-225 184l189 176l2 4z" />
<glyph unicode="+" horiz-adv-x="1271" d="M47 455l51 266h420l88 457h279l-88 -457h420l-52 -266h-420l-88 -455h-278l88 455h-420z" />
<glyph unicode="," horiz-adv-x="610" d="M-139 -227l260 567h346l-342 -567h-264z" />
<glyph unicode="-" horiz-adv-x="921" d="M104 434l60 307h643l-59 -307h-644z" />
<glyph unicode="." horiz-adv-x="579" d="M6 0l64 336h336l-64 -336h-336z" />
<glyph unicode="/" horiz-adv-x="905" d="M-92 -86l835 1622h316l-838 -1622h-313z" />
<glyph unicode="0" horiz-adv-x="1318" d="M104 487q0 83 10.5 173t34.5 188.5t59.5 189.5t90.5 174t122 144t159 97t198 36q486 0 486 -508q0 -83 -10.5 -173t-35 -188.5t-60.5 -190t-91 -175t-122.5 -145t-159.5 -98t-197 -36.5q-484 0 -484 512zM475 504q0 -201 125 -201q70 0 128 70.5t92 175.5t52.5 214 t18.5 198q0 200 -125 200q-70 0 -128.5 -71t-92.5 -176.5t-52 -213.5t-18 -196z" />
<glyph unicode="1" horiz-adv-x="1134" d="M6 0l55 307h312l116 584l25 113h-4q-27 -41 -74 -78l-102 -80l-178 241l483 377h309l-225 -1157h311l-59 -307h-969z" />
<glyph unicode="2" horiz-adv-x="1236" d="M8 0q0 114 28 213t75 172.5t108 137t128.5 111.5t134.5 90.5t128 79.5t108 73t75 76.5t28 84.5q0 56 -38.5 84.5t-94.5 28.5q-42 0 -83 -16t-69.5 -39t-51 -46t-33.5 -39l-11 -16l-252 197q4 6 12 17t35 41.5t58 58.5t80.5 62.5t102 59t123.5 41.5t144 17q85 0 167 -26.5 t149 -76t108 -128.5t41 -175q0 -95 -37.5 -180t-98 -148t-134 -117.5t-150 -98.5t-142 -82t-112.5 -76.5t-59 -73.5h604l-59 -307h-1012z" />
<glyph unicode="3" horiz-adv-x="1206" d="M-25 168l205 254l11.5 -11.5t34.5 -26.5t58.5 -33t83 -26t107.5 -12q109 0 174.5 51t65.5 123q0 68 -65.5 101t-178.5 33h-102l-41 174l219 231q37 39 76 73.5t59 48.5l20 15v4q-49 -10 -141 -10h-334l60 307h923l-43 -223l-354 -354q110 -29 190 -129.5t80 -251.5 q0 -78 -24 -154t-73 -144.5t-118.5 -120t-167 -82t-211.5 -30.5q-101 0 -191 20t-146.5 48.5t-98.5 56.5t-60 48z" />
<glyph unicode="4" horiz-adv-x="1312" d="M4 354l39 217l709 893h469l-158 -813h174l-57 -297h-174l-70 -354h-354l69 354h-647zM451 651h258l63 328q7 36 18 77t18 64l7 23h-4q-51 -89 -100 -152l-260 -336v-4z" />
<glyph unicode="5" horiz-adv-x="1206" d="M-2 168l209 256q4 -5 12.5 -12t36.5 -26.5t59 -34t80 -26.5t99 -12q40 0 81.5 14t78 39.5t60 68t23.5 93.5q0 69 -55.5 108.5t-146.5 39.5q-50 0 -101.5 -12t-77.5 -24l-26 -13l-189 73l209 764h830l-60 -307h-508l-34 -131l-19 -57h4q54 10 109 10q187 0 313.5 -123.5 t126.5 -306.5q0 -161 -86 -294t-226.5 -206.5t-301.5 -73.5q-71 0 -137 10.5t-114.5 27.5t-91 37.5t-70.5 41.5t-48.5 38t-29.5 28z" />
<glyph unicode="6" horiz-adv-x="1269" d="M92 532q0 106 26.5 218t75 218.5t123 201t164.5 165.5t205 112.5t240 41.5q102 0 189 -17t123 -34l36 -17l-146 -291q-94 31 -198 31q-122 0 -213.5 -65.5t-149.5 -175.5h4q27 23 81 37t100 14q103 0 183.5 -34.5t130.5 -95.5t75.5 -140t25.5 -171q0 -99 -38.5 -197.5 t-106.5 -178.5t-171.5 -129.5t-223.5 -49.5q-87 0 -165.5 21.5t-146 67t-117 110t-78 156.5t-28.5 202zM457 528q0 -99 52.5 -162t123.5 -63q80 0 131 65t51 148q0 71 -44.5 118.5t-137.5 47.5q-84 0 -130 -44t-46 -110z" />
<glyph unicode="7" horiz-adv-x="1167" d="M-6 0l715 1026q31 45 61 78.5t44 43.5l15 11v4q-20 -6 -94 -6h-555l60 307h1050l-49 -250l-850 -1214h-397z" />
<glyph unicode="8" horiz-adv-x="1284" d="M55 401q0 69 32.5 138t84 122.5t89.5 85t73 54.5q-98 105 -98 237q0 83 35.5 162.5t100 144.5t167.5 104.5t227 39.5q209 0 341 -103.5t132 -285.5q0 -61 -26 -127t-66 -119.5t-69 -85.5t-54 -55q131 -105 131 -258q0 -69 -25 -137.5t-75.5 -130.5t-119.5 -109t-164 -75 t-202 -28q-126 0 -225.5 33.5t-161.5 92.5t-94.5 135t-32.5 165zM432 428q0 -59 41.5 -98t106.5 -39q83 0 144.5 45t61.5 119q0 19 -7 36.5t-25 34.5t-32.5 29.5t-47.5 31t-50.5 28t-58.5 30.5q-133 -108 -133 -217zM592 1036q0 -57 45.5 -97.5t136.5 -86.5q105 111 105 213 q0 51 -34 80t-97 29q-72 0 -114 -40t-42 -98z" />
<glyph unicode="9" horiz-adv-x="1267" d="M41 43l145 291q95 -31 199 -31q122 0 213 66t150 176h-5q-9 -6 -25.5 -14.5t-63.5 -22.5t-91 -14q-103 0 -184 34.5t-131 95t-75.5 139.5t-25.5 171q0 99 39.5 197.5t108.5 178t174 129.5t225 50q109 0 203.5 -35t167.5 -102t115.5 -175.5t42.5 -244.5q0 -106 -26.5 -218 t-75 -218.5t-123 -201t-164.5 -165.5t-205 -112.5t-240 -41.5q-102 0 -189 17t-123 34zM500 948q0 -71 44.5 -118.5t137.5 -47.5q84 0 130 44t46 110q0 99 -52.5 162t-123.5 63q-80 0 -131 -65t-51 -148z" />
<glyph unicode=":" horiz-adv-x="620" d="M23 0l65 336h336l-66 -336h-335zM164 719l65 336h336l-65 -336h-336z" />
<glyph unicode=";" horiz-adv-x="636" d="M-139 -227l260 567h346l-342 -567h-264zM197 719l65 336h324l-66 -336h-323z" />
<glyph unicode="&#x3c;" horiz-adv-x="1320" d="M113 479v219l1032 457v-297l-676 -268v-4l676 -267v-296z" />
<glyph unicode="=" horiz-adv-x="1349" d="M147 219v266h1037v-266h-1037zM147 690v266h1037v-266h-1037z" />
<glyph unicode="&#x3e;" horiz-adv-x="1333" d="M180 23v296l676 267v4l-676 268v297l1032 -457v-219z" />
<glyph unicode="?" horiz-adv-x="1017" d="M150 0l59 307h323l-59 -307h-323zM170 1346q8 6 22 16t59 36t92.5 45.5t118 35.5t138.5 16t132 -15t119.5 -45.5t97 -74t65.5 -103.5t24 -131q0 -74 -23.5 -138t-61.5 -110.5t-84 -87t-93.5 -73.5t-88.5 -62.5t-69.5 -62.5t-35.5 -66l-15 -73h-340l19 102q11 60 40 112.5 t66.5 90.5t81 71.5t84 62.5t74 56.5t54 59t20.5 65.5q0 44 -35 72.5t-88 28.5q-31 0 -63.5 -9t-58 -22t-46.5 -26.5t-32 -22.5l-11 -9z" />
<glyph unicode="@" horiz-adv-x="1761" d="M59 362q0 180 73.5 345.5t197.5 286.5t296.5 193.5t360.5 72.5q123 0 218.5 -21t159 -57.5t105 -90t59 -114.5t17.5 -135q0 -53 -14 -125l-68 -355h152l-47 -243h-549q-207 0 -317.5 97.5t-110.5 242.5q0 71 33.5 140t95 126t160.5 92t219 35h131q2 8 2 14q0 37 -39 64.5 t-95 40t-118 12.5q-117 0 -224.5 -54.5t-182.5 -140t-119.5 -192.5t-44.5 -211q0 -170 110.5 -279.5t319.5 -109.5l-52 -262q-213 0 -379.5 81t-258 224.5t-91.5 322.5zM944 467q0 -47 28.5 -76t84.5 -29h80l53 275h-76q-76 0 -123 -51t-47 -119z" />
<glyph unicode="A" d="M-117 0l762 1464h412l203 -1464h-359l-31 307h-456l-148 -307h-383zM553 594h289l-29 285q-4 41 -7 103.5t-4 105.5l-1 42h-4q-60 -159 -105 -251z" />
<glyph unicode="B" horiz-adv-x="1359" d="M53 0l285 1464h471q164 0 256 -32q110 -38 170.5 -121.5t60.5 -194.5q0 -102 -61 -197.5t-166 -148.5v-4q90 -33 133 -109.5t43 -171.5q0 -168 -99 -285t-259 -167q-98 -33 -234 -33h-600zM471 307h215q55 0 100 25q41 26 66 71.5t25 92.5q0 52 -32.5 83t-96.5 31h-218z M586 897h184q71 0 114.5 50t43.5 114q0 96 -113 96h-178z" />
<glyph unicode="C" horiz-adv-x="1478" d="M88 625q0 173 68.5 333t184 276t275 185.5t332.5 69.5q109 0 207.5 -21.5t161 -52.5t109 -62.5t66.5 -52.5l21 -22l-202 -246q-6 5 -17 14t-47.5 31t-75 39t-96 31t-114.5 14q-94 0 -177 -31t-141 -82.5t-100.5 -118t-63 -138.5t-20.5 -142q0 -150 87.5 -248t252.5 -98 q62 0 129 18t118 43.5t93.5 51t64.5 43.5l23 18l139 -284q-10 -9 -28.5 -23.5t-78.5 -52t-124.5 -66.5t-162 -52.5t-194.5 -23.5q-210 0 -367.5 83t-240 230t-82.5 337z" />
<glyph unicode="D" horiz-adv-x="1527" d="M55 0l283 1464h469q319 0 498.5 -152.5t179.5 -426.5q0 -182 -63.5 -344.5t-175 -281.5t-272.5 -189t-347 -70h-572zM473 307h148q147 0 261 74t174 197.5t60 273.5q0 149 -87 227t-243 78h-147z" />
<glyph unicode="E" horiz-adv-x="1204" d="M53 0l287 1464h915l-59 -307h-559l-51 -266h444l-61 -307h-445l-53 -277h588l-60 -307h-946z" />
<glyph unicode="F" horiz-adv-x="1128" d="M55 0l283 1464h895l-57 -307h-539l-59 -307h444l-57 -307h-447l-106 -543h-357z" />
<glyph unicode="G" horiz-adv-x="1579" d="M90 623q0 174 68 333.5t184 276.5t281 186.5t350 69.5q106 0 202.5 -19.5t159.5 -47.5t110.5 -55.5t68.5 -46.5l22 -20l-207 -247q-5 4 -15.5 11.5t-44.5 26t-72 33t-96.5 26t-119.5 11.5q-126 0 -227.5 -45.5t-163.5 -120t-94.5 -164t-32.5 -184.5q0 -168 98 -256 t246 -88q48 0 98.5 11t88 26.5t68 31.5t46.5 27l16 11l23 112h-207l59 305h525l-162 -827h-299l8 41l14 61h-4q-5 -5 -14 -13.5t-42 -30.5t-71 -39t-100.5 -30.5t-130.5 -13.5q-122 0 -235 44t-202 124t-142.5 205t-53.5 275z" />
<glyph unicode="H" horiz-adv-x="1593" d="M53 0l285 1464h358l-114 -585h532l115 585h358l-284 -1464h-359l111 573h-533l-110 -573h-359z" />
<glyph unicode="I" horiz-adv-x="702" d="M53 0l285 1464h358l-284 -1464h-359z" />
<glyph unicode="J" horiz-adv-x="1171" d="M2 365q0 57 10 106l17 86h358l-14 -76q-8 -50 -8 -67q0 -111 108 -111q59 0 100 38.5t56 115.5l137 700h-391l59 307h750l-201 -1034q-28 -149 -107.5 -254t-184 -153t-226.5 -48q-124 0 -227.5 42.5t-169.5 133t-66 214.5z" />
<glyph unicode="K" horiz-adv-x="1427" d="M53 0l285 1464h358l-110 -565h137l420 565h416l-555 -719v-4l266 -741h-381l-195 594h-168l-114 -594h-359z" />
<glyph unicode="L" horiz-adv-x="1144" d="M53 0l285 1464h358l-225 -1157h598l-61 -307h-955z" />
<glyph unicode="M" horiz-adv-x="1845" d="M8 0l391 1464h392l96 -618q6 -42 12 -102.5t9 -99.5l3 -40h4q72 146 123 242l334 618h393l-166 -1464h-352l84 659q6 49 18 110.5t21 98.5l8 37h-4q-78 -156 -129 -246l-237 -423h-312l-73 423q-7 41 -15 103.5t-12 104.5l-4 42h-4q-18 -139 -47 -250l-172 -659h-361z " />
<glyph unicode="N" horiz-adv-x="1566" d="M53 0l285 1464h348l272 -684q17 -43 35.5 -105.5t28.5 -103.5l10 -41h4q15 158 33 250l133 684h359l-285 -1464h-346l-275 682q-17 43 -36 105.5t-29 103.5l-10 41h-5q-12 -158 -30 -250l-133 -682h-359z" />
<glyph unicode="O" horiz-adv-x="1671" d="M86 629q0 170 71.5 329.5t188.5 275.5t275 185.5t323 69.5q310 0 500 -179t190 -460q0 -173 -72.5 -335.5t-191 -280t-276 -188.5t-320.5 -71q-155 0 -284.5 49t-217.5 135.5t-137 207.5t-49 262zM455 649q0 -155 90 -250.5t233 -95.5q89 0 177 41t156 110t110.5 167.5 t42.5 205.5q0 150 -90.5 242t-233.5 92q-91 0 -179.5 -40t-155.5 -107.5t-108.5 -163.5t-41.5 -201z" />
<glyph unicode="P" horiz-adv-x="1300" d="M53 0l285 1464h559q132 0 223 -45q102 -49 157.5 -145.5t55.5 -224.5q0 -181 -93 -329t-243 -218q-104 -49 -225 -49h-272l-88 -453h-359zM559 760h174q77 0 121 31q51 34 81 94t30 131q0 66 -38 103.5t-110 37.5h-180z" />
<glyph unicode="Q" horiz-adv-x="1691" d="M86 629q0 170 71.5 329.5t188.5 275.5t275 185.5t323 69.5q310 0 500 -179t190 -460q0 -314 -227 -561l123 -125l-225 -209l-121 143q-181 -123 -410 -123q-155 0 -284.5 49t-217.5 135.5t-137 207.5t-49 262zM455 649q0 -155 90 -250.5t233 -95.5q95 0 187 45l-127 137 l225 209l121 -145q80 131 80 278q0 150 -90.5 242t-233.5 92q-91 0 -179.5 -40t-155.5 -107.5t-108.5 -163.5t-41.5 -201z" />
<glyph unicode="R" horiz-adv-x="1392" d="M53 0l285 1464h545q132 0 215 -34q104 -42 161.5 -128.5t57.5 -207.5q0 -69 -17 -139.5t-51.5 -140t-95.5 -127t-141 -89.5v-4q14 -25 37 -88l188 -506h-385l-164 494h-180l-96 -494h-359zM567 801h154q99 0 163 60t64 165q0 64 -39.5 97.5t-109.5 33.5h-162z" />
<glyph unicode="S" horiz-adv-x="1191" d="M-12 184l213 254q6 -5 16 -14t45 -32t72.5 -40.5t95.5 -32t117 -14.5q65 0 120.5 31.5t55.5 97.5q0 31 -30 60t-78.5 55.5t-106.5 56.5t-116.5 69.5t-107 87t-78.5 117t-30 152.5q0 84 30.5 158t83 128t122 93t148.5 58.5t161 19.5q96 0 183 -17.5t142.5 -42.5t97 -50 t59.5 -43l18 -17l-193 -264q-5 4 -15 11t-42 25t-66.5 32t-86 25t-103.5 11q-65 0 -122.5 -33t-57.5 -94q0 -32 30.5 -62t79 -56t107 -55t117 -68t107 -86t79 -117t30.5 -154q0 -191 -155.5 -325t-388.5 -134q-105 0 -200.5 21.5t-157 52.5t-108 61.5t-67.5 51.5z" />
<glyph unicode="T" horiz-adv-x="1261" d="M113 1157l59 307h1243l-59 -307h-443l-225 -1157h-358l225 1157h-442z" />
<glyph unicode="U" horiz-adv-x="1529" d="M129 430q0 58 12 119l178 915h359l-180 -925q-6 -30 -6 -58q0 -87 57 -132.5t158 -45.5q120 0 198 61t101 175l180 925h358l-182 -936q-50 -251 -228.5 -402t-439.5 -151q-116 0 -217.5 30t-179.5 86t-123 143.5t-45 195.5z" />
<glyph unicode="V" horiz-adv-x="1398" d="M147 1464h383l97 -833q4 -41 6.5 -100t2.5 -97l1 -39h4q55 144 100 236l422 833h408l-803 -1464h-385z" />
<glyph unicode="W" horiz-adv-x="2078" d="M203 1464h372l23 -915v-39.5v-39.5q-1 -38 -2 -56l-2 -19h4q14 64 53 154l402 915h297l43 -915q1 -25 2 -48q0 -12 -1 -23q-1 -34 -3 -58l-2 -25h4q14 72 47 154l366 915h392l-644 -1464h-415l-39 739q-1 34 -1 64q0 61 5 108h-4q-23 -78 -64 -172l-327 -739h-412z" />
<glyph unicode="X" horiz-adv-x="1372" d="M-86 0l586 737l-305 727h391l106 -295q15 -41 29.5 -87.5t21.5 -72.5l7 -26h4q50 92 120 186l216 295h417l-596 -745l310 -719h-383l-115 301q-16 41 -30 86t-21 69l-6 25h-4q-51 -88 -121 -180l-224 -301h-403z" />
<glyph unicode="Y" horiz-adv-x="1292" d="M147 1464h388l98 -352q12 -44 23.5 -97t17.5 -83l6 -31h4q63 109 129 211l223 352h430l-659 -878l-113 -586h-358l117 600z" />
<glyph unicode="Z" horiz-adv-x="1306" d="M-39 0l45 225l696 801q36 41 71 74t52 46l17 13v4q-45 -6 -111 -6h-518l57 307h1106l-45 -221l-702 -805q-36 -41 -71 -74t-52 -46l-17 -13v-4q47 6 113 6h559l-59 -307h-1141z" />
<glyph unicode="[" horiz-adv-x="753" d="M14 -195l338 1731h504l-49 -246h-209l-240 -1239h209l-49 -246h-504z" />
<glyph unicode="\" horiz-adv-x="876" d="M205 1536h282l211 -1622h-282z" />
<glyph unicode="]" horiz-adv-x="759" d="M-72 -195l47 246h209l240 1239h-209l49 246h504l-338 -1731h-502z" />
<glyph unicode="^" horiz-adv-x="1290" d="M0 494l416 970h219l416 -970h-297l-230 614l-227 -614h-297z" />
<glyph unicode="_" horiz-adv-x="1273" d="M-141 -266l49 266h1220l-51 -266h-1218z" />
<glyph unicode="`" horiz-adv-x="991" d="M164 1866h338l104 -307h-262z" />
<glyph unicode="a" horiz-adv-x="1138" d="M-12 248q0 77 31 141t85 107.5t121 75.5t145.5 50t151 26.5t144.5 8.5h14q4 28 4 39q0 97 -133 97q-59 0 -135.5 -24.5t-123.5 -48.5l-46 -24l-76 267q9 5 25 12.5t66 27.5t101 35.5t122.5 28t136.5 12.5q58 0 112.5 -9t111 -33t98.5 -60.5t68.5 -96.5t26.5 -137 q0 -40 -10 -102l-123 -641h-323l12 63q3 16 7.5 32.5t7.5 24.5l3 9h-4q-5 -6 -13.5 -16.5t-39 -37t-64 -47t-86.5 -37t-108 -16.5q-127 0 -218 73t-91 200zM344 313q0 -31 21.5 -49t64.5 -18q67 0 132 59.5t77 126.5l4 23h-33q-37 0 -75 -5t-85 -18.5t-76.5 -44t-29.5 -74.5 z" />
<glyph unicode="b" horiz-adv-x="1306" d="M14 0l283 1464h354l-78 -397l-22 -94h4q51 50 126 78t150 28q191 0 299.5 -123.5t108.5 -334.5q0 -139 -49.5 -261.5t-130.5 -205.5t-185 -131t-212 -48q-90 0 -170 32t-127 97h-5q-2 -26 -8 -59l-8 -45h-330zM451 453q0 -81 41.5 -133t123.5 -52q99 0 182 90t83 236 q0 86 -44.5 136t-121.5 50q-42 0 -87.5 -22.5t-85.5 -62t-65.5 -103.5t-25.5 -139z" />
<glyph unicode="c" horiz-adv-x="1132" d="M33 459q0 113 47.5 224t131 199t209.5 142.5t271 54.5q84 0 159 -16t122.5 -39t82.5 -45.5t50 -38.5l16 -16l-178 -222q-4 3 -11.5 8.5t-31.5 20t-49.5 25t-64.5 19.5t-78 9q-95 0 -169.5 -48t-111.5 -116.5t-37 -140.5q0 -89 55 -149t162 -60q67 0 146 32t124 64l46 31 l90 -268l-22 -16.5t-60.5 -37t-96 -47t-125 -37t-151.5 -16.5q-127 0 -228.5 38t-165.5 104t-98 153t-34 189z" />
<glyph unicode="d" horiz-adv-x="1308" d="M37 428q0 143 48.5 266t130 206.5t189 131t224.5 47.5q77 0 151.5 -22.5t114.5 -71.5h4q2 27 6 47l84 432h354l-284 -1464h-332l14 70l13 59h-4q-54 -72 -134.5 -113t-169.5 -41q-192 0 -300.5 122.5t-108.5 330.5zM395 455q0 -86 44.5 -136.5t121.5 -50.5q93 0 177.5 93 t84.5 233q0 81 -41 133.5t-123 52.5q-99 0 -181.5 -89.5t-82.5 -235.5z" />
<glyph unicode="e" horiz-adv-x="1150" d="M35 436q0 181 79 328.5t218 231t311 83.5q218 0 334.5 -112t116.5 -301q0 -43 -10 -94.5t-20 -81.5l-9 -31h-666q0 -89 54.5 -139t152.5 -50q68 0 146.5 27t122.5 53l44 27l90 -264q-8 -6 -22 -15t-59 -33t-92 -42t-116.5 -33t-136.5 -15q-131 0 -235.5 37t-169.5 101 t-99 146.5t-34 176.5zM436 662h312q2 24 2 36q0 51 -30 83t-83 32q-72 0 -123 -41.5t-78 -109.5z" />
<glyph unicode="f" horiz-adv-x="784" d="M78 0l147 760h-129l56 276h129l8 45q13 72 41 130.5t63.5 98.5t81.5 70.5t90 47.5t93.5 27.5t87.5 14t77 3.5q34 0 66 -1.5t47 -3.5l16 -2l-61 -299q-20 4 -53 4q-181 0 -199 -102l-6 -33h194l-53 -276h-194l-148 -760h-354z" />
<glyph unicode="g" horiz-adv-x="1286" d="M-14 -322l139 254q4 -3 12 -7.5t36 -16t59 -20.5t80.5 -16t101.5 -7q107 0 185 47.5t97 155.5l6 34l9 39h-2q-54 -57 -113.5 -83.5t-140.5 -26.5q-102 0 -181.5 34.5t-128.5 95.5t-74.5 140t-25.5 172q0 112 38.5 219.5t108 194t178.5 139.5t238 53q199 0 283 -112h6 q2 20 4 32l10 56h332l-190 -979q-22 -111 -70 -199t-109.5 -144.5t-138.5 -94t-154 -53t-159 -15.5q-81 0 -155.5 11t-123.5 27t-86 32t-54 27zM403 504q0 -80 40 -129t122 -49q74 0 131.5 49.5t85 117.5t27.5 138q0 153 -170 153q-107 0 -171.5 -80.5t-64.5 -199.5z" />
<glyph unicode="h" horiz-adv-x="1302" d="M12 0l285 1464h354l-90 -463l-20 -90h4q45 71 139.5 119.5t194.5 48.5q71 0 129 -16.5t104.5 -50.5t72 -93t25.5 -139q0 -41 -14 -116l-129 -664h-354l118 606q7 44 7 62q0 90 -95 90q-101 0 -182.5 -86t-103.5 -205l-90 -467h-355z" />
<glyph unicode="i" horiz-adv-x="614" d="M12 0l203 1055h354l-204 -1055h-353zM246 1188l53 276h346l-53 -276h-346z" />
<glyph unicode="j" horiz-adv-x="616" d="M-303 -420l57 295q18 -2 45 -2q32 0 61 5t63 17.5t58.5 41.5t32.5 71l203 1047h354l-209 -1078q-14 -74 -43.5 -135t-66 -102t-83 -72t-90.5 -48.5t-93.5 -28t-87 -14t-76.5 -3.5q-34 0 -65 1.5t-45 2.5zM248 1188l53 276h346l-53 -276h-346z" />
<glyph unicode="k" horiz-adv-x="1232" d="M12 0l285 1464h354l-147 -757h96l279 348h411l-424 -500v-4l236 -551h-375l-154 410h-127l-79 -410h-355z" />
<glyph unicode="l" horiz-adv-x="661" d="M61 281q0 55 15 129l205 1054h354l-197 -1015q-10 -45 -10 -80q0 -68 80 -68l43 2l-59 -307q-48 -6 -97 -6q-334 0 -334 291z" />
<glyph unicode="m" horiz-adv-x="1878" d="M12 0l205 1055h342l-16 -82l-21 -76h4q140 182 320 182q225 0 280 -178h4q56 73 152 125.5t201 52.5q301 0 301 -288q0 -55 -17 -148l-122 -643h-355l121 614q6 33 6 62q0 82 -69 82q-92 0 -161 -93t-95 -229l-86 -436h-355l121 614q6 33 6 62q0 82 -69 82 q-90 0 -160 -93.5t-96 -228.5l-86 -436h-355z" />
<glyph unicode="n" horiz-adv-x="1302" d="M12 0l205 1055h342l-10 -54q-4 -24 -11 -50t-12 -40l-4 -14h4q46 73 147 127.5t206 54.5q71 0 129 -16.5t104.5 -50.5t72 -93t25.5 -139q0 -41 -14 -116l-129 -664h-354l118 606q7 44 7 62q0 90 -95 90q-101 0 -182.5 -86t-103.5 -205l-90 -467h-355z" />
<glyph unicode="o" horiz-adv-x="1298" d="M31 449q0 135 56.5 254.5t148.5 200.5t210.5 128t241.5 47q240 0 393.5 -130t153.5 -343q0 -135 -56.5 -255t-149 -201t-210.5 -128t-241 -47q-241 0 -394 130t-153 344zM389 465q0 -90 54 -142.5t141 -52.5q113 0 203 88t90 226q0 92 -54 146t-139 54q-111 0 -203 -90.5 t-92 -228.5z" />
<glyph unicode="p" horiz-adv-x="1302" d="M-68 -410l283 1465h320l-11 -54q-3 -16 -7.5 -32.5t-7.5 -25.5l-3 -9h4q56 68 140 106.5t177 38.5q190 0 299 -124t109 -334q0 -139 -49.5 -261.5t-131 -205.5t-185.5 -131t-212 -48q-174 0 -276 111h-4q-5 -37 -15 -90l-77 -406h-353zM449 455q0 -82 40.5 -134.5 t122.5 -52.5q101 0 183 90t82 236q0 86 -44 136t-120 50q-42 0 -87.5 -22.5t-85.5 -62t-65.5 -103t-25.5 -137.5z" />
<glyph unicode="q" horiz-adv-x="1308" d="M37 428q0 143 48.5 266t130 206.5t189 131t224.5 47.5q192 0 284 -112h5q2 22 8 57l6 31h332l-285 -1465h-354l80 414l22 90h-4q-44 -46 -115 -82.5t-162 -36.5q-192 0 -300.5 122.5t-108.5 330.5zM395 455q0 -86 44.5 -136.5t121.5 -50.5q93 0 177.5 93t84.5 233 q0 81 -41 133.5t-123 52.5q-99 0 -181.5 -89.5t-82.5 -235.5z" />
<glyph unicode="r" horiz-adv-x="880" d="M12 0l205 1055h340l-35 -178l-16 -66h2q53 111 155 186.5t211 75.5l62 -4l-68 -348q-26 6 -69 6q-34 0 -73 -10.5t-84.5 -37.5t-84.5 -67.5t-72 -106t-49 -147.5l-69 -358h-355z" />
<glyph unicode="s" horiz-adv-x="962" d="M-41 129l176 227q4 -4 12.5 -10t35.5 -22.5t56 -29t73.5 -22.5t88.5 -10q46 0 80.5 13.5t34.5 39.5q0 21 -31 42.5t-77.5 39.5t-100.5 48t-100.5 65t-77.5 94.5t-31 132.5q0 99 64 178.5t165 121.5t214 42q71 0 138 -12.5t112 -30.5t79.5 -35.5t51.5 -30.5l16 -12 l-152 -241q-4 3 -10.5 8t-30 18.5t-50 23.5t-68.5 18t-86 8t-79.5 -14.5t-35.5 -41.5q0 -16 23 -32t60 -32.5t82 -36t90 -48.5t82 -64.5t60 -89.5t23 -119q0 -153 -123 -246.5t-322 -93.5q-73 0 -145.5 16t-124 38.5t-92 45t-60.5 38.5z" />
<glyph unicode="t" horiz-adv-x="839" d="M74 760l53 276h145l60 303h340l-60 -303h224l-54 -276h-223l-57 -301q-6 -27 -6 -56q0 -102 155 -102l56 2l-60 -307q-53 -6 -94 -6q-90 0 -164.5 19t-134.5 58t-93.5 105.5t-33.5 155.5q0 34 10 82l70 350h-133z" />
<glyph unicode="u" horiz-adv-x="1288" d="M57 274q0 36 15 117l129 664h354l-119 -606q-6 -37 -6 -62q0 -90 94 -90q98 0 175 85.5t100 205.5l90 467h354l-205 -1055h-342l11 53l26 105h-4q-47 -75 -141.5 -129t-198.5 -54q-71 0 -129 16.5t-104.5 50.5t-72.5 93t-26 139z" />
<glyph unicode="v" horiz-adv-x="1124" d="M78 1055h350l53 -561l4 -183h4q39 113 74 183l273 561h374l-565 -1055h-409z" />
<glyph unicode="w" horiz-adv-x="1695" d="M109 1055h352l8 -623q0 -25 -2 -52.5t-4 -42.5l-2 -15h4q1 0 5 14.5t13.5 42.5t20.5 53l268 623h297l23 -623q1 -16 -0.5 -43.5t-3.5 -46.5l-1 -20h5q9 53 34 110l252 623h377l-502 -1055h-393l-22 487v113h-4q-16 -56 -41 -113l-215 -487h-379z" />
<glyph unicode="x" horiz-adv-x="1138" d="M-90 0l442 532l-250 523h373l86 -226l23 -77h4q27 50 45 77l160 226h409l-450 -543l243 -512h-364l-94 227l-19 62h-4q-23 -44 -37 -62l-164 -227h-403z" />
<glyph unicode="y" horiz-adv-x="1120" d="M-186 -348l153 246q44 -33 105 -33q125 0 190 106l31 49l-248 1035h369l86 -523q4 -25 6.5 -64t3.5 -65v-26h4q37 92 64 149l235 529h397l-659 -1168q-92 -162 -215.5 -239.5t-245.5 -77.5q-69 0 -138 20.5t-104 41.5z" />
<glyph unicode="z" horiz-adv-x="1105" d="M-49 0l33 176l469 486q29 29 56 53t39 33l13 10v4q-24 -4 -90 -4h-360l59 297h940l-33 -178l-469 -486q-28 -28 -56.5 -52t-43.5 -34l-14 -10v-4q28 6 96 6h383l-60 -297h-962z" />
<glyph unicode="{" horiz-adv-x="829" d="M66 524l59 307q7 0 19 1t44 12t58.5 30.5t53.5 61t38 98.5l41 211q15 78 53 135t83.5 88t107.5 49.5t112 23.5t111 5l86 -4l-49 -254q-23 4 -52 4q-36 0 -67 -7t-62.5 -33t-39.5 -70l-54 -271q-10 -52 -37 -94.5t-58 -67t-60 -42t-49 -23.5l-19 -6v-4q5 -2 14 -5.5 t31 -19.5t39 -38t31 -63.5t14 -92.5q0 -28 -6 -66l-45 -229q-2 -8 -2 -25q0 -86 131 -86l51 4l-49 -254q-39 -4 -90 -4q-35 0 -73.5 5.5t-89 24t-89 47.5t-65.5 82.5t-27 123.5q0 41 8 80l33 170q6 30 6 53q0 40 -14.5 69.5t-35.5 43t-41.5 21t-35.5 8.5z" />
<glyph unicode="|" horiz-adv-x="724" d="M221 -338v1980h295v-1980h-295z" />
<glyph unicode="}" horiz-adv-x="835" d="M-74 -201l49 254q23 -4 52 -4q36 0 67.5 7.5t63 33.5t39.5 70l57 284q10 52 37 95t58 67.5t60 41.5t49 24l19 6v4q-5 2 -14 5.5t-31 19.5t-39 38t-31 63.5t-14 92.5q0 29 6 66l41 215q2 8 2 24q0 86 -131 86l-51 -4l49 254q39 4 90 4q36 0 74 -5.5t88.5 -23.5t89 -47 t65.5 -82.5t27 -123.5q0 -41 -8 -80l-28 -156q-7 -35 -7 -53q0 -40 14.5 -69.5t35.5 -43t42 -21.5t35 -9l15 -1l-60 -307q-7 0 -19 -1t-44 -12t-58.5 -30t-53.5 -60.5t-38 -98.5l-45 -226q-15 -78 -53 -135t-83.5 -88t-107.5 -49.5t-112 -23.5t-111 -5z" />
<glyph unicode="~" horiz-adv-x="1257" d="M80 391q0 416 356 416q53 0 98.5 -17t77.5 -41t60 -48t57.5 -41t58.5 -17q51 0 82 40t31 116h273q0 -206 -89 -311t-266 -105q-53 0 -98.5 17t-77.5 41t-60 48t-58 41t-60 17q-49 0 -80 -40.5t-31 -115.5h-274z" />
<glyph unicode="&#xa1;" horiz-adv-x="659" d="M-51 -410l229 1012h303l-164 -1012h-368zM193 748l59 307h323l-59 -307h-323z" />
<glyph unicode="&#xa2;" horiz-adv-x="1230" d="M98 647q0 113 33.5 215.5t89 178.5t128 135t151 93.5t157.5 45.5l33 172h225l-34 -187q77 -21 137.5 -64.5t92.5 -90t52.5 -90t26.5 -71.5l6 -28l-317 -114q0 3 -1 8.5t-5 21t-10.5 29.5t-19.5 31t-29 29.5t-42 21t-57 8.5q-92 0 -176 -97.5t-84 -236.5q0 -88 43.5 -135 t115.5 -47q43 0 82.5 15t65.5 36.5t46 43t29 36.5l9 15l305 -129q-4 -7 -10.5 -18.5t-30.5 -45t-51.5 -64.5t-71.5 -70.5t-91 -69t-110.5 -53t-130.5 -30.5l-32 -166h-226l37 189q-152 47 -244 175t-92 308z" />
<glyph unicode="&#xa3;" horiz-adv-x="1247" d="M-16 0l59 307h111l59 305h-88l45 230h86l45 225q37 188 187 305t354 117q71 0 138 -19t112 -46t79.5 -54t50.5 -46l17 -19l-223 -222l-9 9t-25 20.5t-39 25.5t-50.5 20t-61.5 9q-60 0 -108.5 -36t-60.5 -95l-39 -194h340l-45 -230h-338l-60 -305h594l-59 -307h-1071z" />
<glyph unicode="&#xa5;" horiz-adv-x="1320" d="M84 342l37 197h334l12 57l-31 100h-284l38 197h189l-170 571h391l57 -293q12 -60 23.5 -128t16.5 -106l5 -38h5q59 139 135 272l162 293h426l-394 -571h191l-39 -197h-287l-67 -100l-13 -57h336l-37 -197h-336l-67 -342h-367l68 342h-334z" />
<glyph unicode="&#xa7;" horiz-adv-x="1067" d="M-45 41l176 201q4 -3 11.5 -9t33 -21t53.5 -26t72 -20.5t90 -9.5q133 0 192.5 82.5t47.5 224.5l-45 532h258l45 -538q10 -118 -17.5 -223t-88 -185.5t-162 -128t-230.5 -47.5q-78 0 -151.5 17.5t-123 42t-87.5 49t-56 42.5zM197 905q-10 118 17 223t88 185.5t162 128 t230 47.5q78 0 151.5 -17.5t123 -42t87.5 -49t56 -42.5l18 -17l-176 -201q-4 3 -11.5 9t-33 21t-53.5 26t-72 20.5t-90 9.5q-133 0 -192.5 -82.5t-46.5 -224.5l45 -532h-258z" />
<glyph unicode="&#xa8;" horiz-adv-x="993" d="M16 1579l58 287h258l-58 -287h-258zM444 1579l58 287h258l-58 -287h-258z" />
<glyph unicode="&#xa9;" horiz-adv-x="1665" d="M115 733q0 154 58 293.5t156.5 240.5t234.5 160.5t286 59.5q153 0 290.5 -59.5t236.5 -160.5t157.5 -240.5t58.5 -293.5t-58.5 -294.5t-157.5 -242t-237 -161.5t-290 -60q-120 0 -232 38.5t-202.5 108.5t-158.5 163t-105 209t-37 239zM346 733q0 -150 66 -276t182 -198.5 t256 -72.5q143 0 261 72.5t185.5 198t67.5 276.5q0 150 -67.5 274.5t-185.5 196.5t-261 72q-140 0 -256 -72t-182 -197t-66 -274zM502 727q0 161 104.5 272t247.5 111q74 0 136 -24.5t96.5 -59t58.5 -69t33 -59.5l8 -24l-205 -79q-1 4 -3.5 11t-12.5 24t-22 30t-34 24 t-47 11q-48 0 -84.5 -48t-36.5 -120q0 -81 33.5 -124.5t87.5 -43.5q25 0 46.5 10.5t34.5 25t22 29t13 24.5l3 11l205 -79q-3 -10 -9 -25.5t-31.5 -56.5t-59.5 -72t-96 -56.5t-136 -25.5q-143 0 -247.5 111t-104.5 272z" />
<glyph unicode="&#xaa;" horiz-adv-x="849" d="M100 549l33 174h625l-35 -174h-623zM174 963q0 50 18 90.5t45.5 66.5t68 45t76 29t79 15.5t69 6.5t52.5 1h20q6 22 6 34q0 27 -22.5 41.5t-61.5 14.5q-35 0 -79 -13t-71 -26l-26 -13l-51 160q13 8 37.5 19.5t103.5 31t162 19.5q122 0 185 -58t63 -161q0 -30 -6 -68 l-78 -399h-221l14 80h-4q-3 -4 -7.5 -10.5t-22.5 -22.5t-38 -28.5t-53.5 -23t-69.5 -10.5q-78 0 -133 49t-55 130zM420 997q0 -30 41 -30q36 0 69 28t39 64l2 10h-20q-55 0 -93 -17t-38 -55z" />
<glyph unicode="&#xab;" horiz-adv-x="1341" d="M51 578l391 421h336l-413 -436l266 -405h-314zM584 578l436 421h342l-465 -436l266 -405h-313z" />
<glyph unicode="&#xac;" horiz-adv-x="1288" d="M111 690v266h1036v-686h-277v420h-759z" />
<glyph unicode="&#xad;" horiz-adv-x="880" d="M-31 434l60 307h643l-60 -307h-643z" />
<glyph unicode="&#xae;" horiz-adv-x="1665" d="M115 733q0 154 58 293.5t156.5 240.5t234.5 160.5t286 59.5q153 0 290.5 -59.5t236.5 -160.5t157.5 -240.5t58.5 -293.5t-58.5 -294.5t-157.5 -242t-237 -161.5t-290 -60q-120 0 -232 38.5t-202.5 108.5t-158.5 163t-105 209t-37 239zM346 733q0 -150 66 -276t182 -198.5 t256 -72.5q143 0 261 72.5t185.5 198t67.5 276.5q0 150 -67.5 274.5t-185.5 196.5t-261 72q-140 0 -256 -72t-182 -197t-66 -274zM584 383v711h334q115 0 182 -64t67 -172q0 -76 -40 -123.5t-78 -58.5v-4q8 -6 26 -41l129 -248h-241l-101 242h-57v-242h-221zM805 772h55 q40 0 61 22.5t21 63.5q0 84 -78 84h-59v-170z" />
<glyph unicode="&#xaf;" horiz-adv-x="993" d="M86 1602l45 229h563l-45 -229h-563z" />
<glyph unicode="&#xb0;" horiz-adv-x="858" d="M156 1106q0 99 57.5 189.5t150 145t191.5 54.5q151 0 248.5 -91.5t97.5 -227.5q0 -101 -58.5 -192t-151 -143.5t-191.5 -52.5q-151 0 -247.5 90t-96.5 228zM414 1126q0 -41 28 -66.5t74 -25.5q47 0 87 36.5t40 82.5q0 43 -29 69.5t-75 26.5q-49 0 -87 -38.5t-38 -84.5z " />
<glyph unicode="&#xb1;" horiz-adv-x="1400" d="M78 455v266h420v457h278v-457h420v-266h-420v-455h-278v455h-420zM98 -143h1078v-267h-1078v267z" />
<glyph unicode="&#xb2;" horiz-adv-x="831" d="M-27 866q0 97 28.5 176.5t74.5 130.5t101 91t110.5 68t101.5 53t74.5 53t28.5 61q0 26 -23.5 40.5t-56.5 14.5q-36 0 -77 -23t-64 -46l-23 -23l-154 160q6 7 16.5 18t46 40t73 51.5t93.5 40.5t111 18q48 0 94 -10t88 -31.5t74 -52t51 -74.5t19 -96q0 -61 -23 -113.5 t-61 -89.5t-84 -68t-93.5 -53.5t-88 -41.5t-69.5 -37.5t-36 -35.5h381l-43 -221h-670z" />
<glyph unicode="&#xb3;" horiz-adv-x="831" d="M-16 985l147 170q2 -3 7 -8t22 -18t36.5 -22.5t52 -17.5t68.5 -8q55 0 89 26t34 67q0 32 -32 49.5t-80 17.5h-76l-37 117l152 141l57 47v4q-43 -4 -70 -4h-211l43 223h602l-30 -161l-203 -189q72 -24 112 -89.5t40 -147.5q0 -62 -26.5 -121t-75 -107.5t-124.5 -78 t-166 -29.5q-61 0 -118 14.5t-94 35t-65 40.5t-41 34z" />
<glyph unicode="&#xb4;" horiz-adv-x="991" d="M90 1559l227 307h363l-303 -307h-287z" />
<glyph unicode="&#xb6;" horiz-adv-x="1351" d="M127 924q0 144 80 270t207 198t264 72h762l-60 -307h-485l-246 -1259h-246l117 596q-75 0 -146 32.5t-126 88.5t-88 137t-33 172zM776 -102l225 1157h246l-225 -1157h-246z" />
<glyph unicode="&#xb7;" horiz-adv-x="602" d="M104 436l64 336h324l-64 -336h-324z" />
<glyph unicode="&#xb8;" horiz-adv-x="991" d="M137 -412l33 174q45 -16 90 -16q38 0 63 13.5t25 39.5q0 37 -76 37l-55 -4l117 227l141 -34l-4 -15l-37 -84q50 -9 88.5 -42.5t38.5 -92.5q0 -61 -25.5 -106t-67 -69t-86 -35t-91.5 -11q-37 0 -75.5 4.5t-58.5 9.5z" />
<glyph unicode="&#xb9;" horiz-adv-x="831" d="M12 866l43 221h183l53 279q4 17 9 33.5t8 24.5l3 8h-4q-14 -21 -28 -31l-56 -41l-121 172l304 237h221l-131 -682h184l-43 -221h-625z" />
<glyph unicode="&#xba;" horiz-adv-x="940" d="M111 549l34 174h693l-35 -174h-692zM193 1087q0 113 61.5 205.5t158 142.5t203.5 50q146 0 239 -82t93 -217q0 -112 -62 -205t-159 -143t-203 -50q-145 0 -238 82t-93 217zM438 1104q0 -48 30 -76.5t77 -28.5q61 0 109 47t48 121q0 49 -29.5 79t-74.5 30 q-60 0 -110 -49.5t-50 -122.5z" />
<glyph unicode="&#xbb;" horiz-adv-x="1341" d="M-35 158l465 436l-266 405h313l266 -419l-436 -422h-342zM549 158l414 436l-267 405h314l266 -419l-391 -422h-336z" />
<glyph unicode="&#xbc;" horiz-adv-x="2080" d="M92 561l43 221h182l54 279q4 17 9 33.5t8 23.5l3 8h-4q-15 -20 -29 -30l-55 -41l-121 172l303 237h222l-132 -682h185l-43 -221h-625zM434 0l971 1464h258l-971 -1464h-258zM1157 178l31 172l442 553h322l-99 -506h109l-41 -219h-109l-34 -178h-254l35 178h-402z M1456 397h143l37 185q4 23 11.5 48.5t12.5 39.5l5 14h-4q-29 -57 -62 -94l-143 -189v-4z" />
<glyph unicode="&#xbd;" horiz-adv-x="2084" d="M94 561l43 221h182l54 279q4 17 9 33.5t8 23.5l3 8h-4q-15 -20 -29 -30l-55 -41l-121 172l303 237h222l-131 -682h184l-43 -221h-625zM444 0l971 1464h258l-971 -1464h-258zM1196 0q0 97 28.5 176.5t74.5 130.5t101 91t110 68t101 53t74.5 53t28.5 61q0 26 -23.5 40.5 t-56.5 14.5q-36 0 -77 -23t-64 -46l-23 -23l-153 160q6 7 16.5 18t46 40t73 51.5t93.5 40.5t111 18q60 0 117 -16.5t104 -48t75.5 -83.5t28.5 -117q0 -71 -31.5 -130.5t-78.5 -97t-104 -71t-106.5 -54.5t-87.5 -43.5t-46 -41.5h381l-43 -221h-670z" />
<glyph unicode="&#xbe;" horiz-adv-x="2076" d="M63 680l148 170q2 -3 7 -8t22 -18t36.5 -22.5t52 -17.5t68.5 -8q55 0 89 25.5t34 66.5q0 32 -32 50t-80 18h-76l-37 117l151 141l58 47v4q-43 -4 -70 -4h-211l43 223h602l-30 -161l-203 -189q71 -24 111 -89.5t40 -147.5q0 -62 -26.5 -121t-74.5 -107.5t-124 -78 t-166 -29.5q-61 0 -118 14.5t-94 34.5t-65.5 40.5t-41.5 35.5zM430 0l971 1464h258l-971 -1464h-258zM1153 178l31 172l442 553h322l-99 -506h109l-41 -219h-109l-34 -178h-254l34 178h-401zM1452 397h143l37 185q4 23 11.5 48.5t12.5 39.5l5 14h-4q-29 -57 -62 -94 l-143 -189v-4z" />
<glyph unicode="&#xbf;" horiz-adv-x="1003" d="M-63 -61q0 74 23.5 138t61.5 110.5t84 87t93.5 73.5t88.5 62.5t69.5 62.5t35.5 66l13 63h339l-16 -92q-11 -60 -40 -112.5t-66.5 -90.5t-81 -71.5t-84 -62.5t-74 -56.5t-54 -59t-20.5 -65.5q0 -44 35 -72.5t88 -28.5q48 0 101 22.5t81 44.5l29 22l162 -261q-8 -6 -22 -16 t-59 -36t-92.5 -45.5t-118 -35.5t-138.5 -16t-132 15t-119.5 45.5t-97 74t-65.5 103.5t-24 131zM440 748l60 307h323l-59 -307h-324z" />
<glyph unicode="&#xc0;" d="M-117 0l762 1464h412l203 -1464h-359l-31 307h-456l-148 -307h-383zM545 1866h338l104 -307h-262zM553 594h289l-29 285q-4 41 -7 103.5t-4 105.5l-1 42h-4q-60 -159 -105 -251z" />
<glyph unicode="&#xc1;" d="M-117 0l762 1464h412l203 -1464h-359l-31 307h-456l-148 -307h-383zM553 594h289l-29 285q-4 41 -7 103.5t-4 105.5l-1 42h-4q-60 -159 -105 -251zM719 1559l227 307h363l-303 -307h-287z" />
<glyph unicode="&#xc2;" d="M-117 0l762 1464h412l203 -1464h-359l-31 307h-456l-148 -307h-383zM487 1559l265 307h344l141 -307h-266l-64 167h-4l-129 -167h-287zM553 594h289l-29 285q-4 41 -7 103.5t-4 105.5l-1 42h-4q-60 -159 -105 -251z" />
<glyph unicode="&#xc3;" d="M-117 0l762 1464h412l203 -1464h-359l-31 307h-456l-148 -307h-383zM477 1559q64 313 305 313q35 0 64 -12.5t48.5 -31t36.5 -36.5t35.5 -30.5t37.5 -12.5q69 0 90 117h231q-30 -152 -106.5 -233t-196.5 -81q-33 0 -62 12.5t-49 31t-38 36.5t-37 30.5t-37 12.5 q-66 0 -90 -116h-232zM553 594h289l-29 285q-4 41 -7 103.5t-4 105.5l-1 42h-4q-60 -159 -105 -251z" />
<glyph unicode="&#xc4;" d="M-117 0l762 1464h412l203 -1464h-359l-31 307h-456l-148 -307h-383zM535 1579l57 287h258l-57 -287h-258zM553 594h289l-29 285q-4 41 -7 103.5t-4 105.5l-1 42h-4q-60 -159 -105 -251zM963 1579l57 287h258l-57 -287h-258z" />
<glyph unicode="&#xc5;" d="M-117 0l762 1464h412l203 -1464h-359l-31 307h-456l-148 -307h-383zM553 594h289l-29 285q-4 41 -7 103.5t-4 105.5l-1 42h-4q-60 -159 -105 -251zM674 1679q0 96 77 148.5t173 52.5q85 0 144.5 -40.5t59.5 -115.5q0 -48 -23.5 -86.5t-61.5 -61.5t-80.5 -34.5 t-85.5 -11.5q-85 0 -144 38.5t-59 110.5zM829 1686q0 -25 15.5 -39.5t42.5 -14.5q36 0 62 25t26 63q0 26 -16 42t-44 16q-35 0 -60.5 -26t-25.5 -66z" />
<glyph unicode="&#xc6;" horiz-adv-x="1988" d="M-127 0l885 1464h1282l-60 -307h-559l-51 -266h447l-62 -307h-446l-54 -277h586l-59 -307h-944l114 590h-340l-342 -590h-397zM778 877h230l53 280h-119z" />
<glyph unicode="&#xc7;" horiz-adv-x="1478" d="M88 625q0 173 68.5 333t184 276t275 185.5t332.5 69.5q109 0 207.5 -21.5t161 -52.5t109 -62.5t66.5 -52.5l21 -22l-202 -246q-6 5 -17 14t-47.5 31t-75 39t-96 31t-114.5 14q-94 0 -177 -31t-141 -82.5t-100.5 -118t-63 -138.5t-20.5 -142q0 -150 87.5 -248t252.5 -98 q62 0 129 18t118 43.5t93.5 51t64.5 43.5l23 18l139 -284q-10 -9 -28.5 -23.5t-78.5 -52t-124.5 -66.5t-162 -52.5t-194.5 -23.5h-10l-20 -49q50 -9 88 -42.5t38 -92.5q0 -61 -25.5 -106t-67 -69t-86 -35t-91.5 -11q-37 0 -75.5 4.5t-58.5 9.5l-19 4l32 174q45 -16 90 -16 q38 0 63.5 13.5t25.5 39.5q0 37 -76 37l-56 -4l80 158q-245 45 -383.5 215.5t-138.5 419.5z" />
<glyph unicode="&#xc8;" horiz-adv-x="1204" d="M53 0l287 1464h915l-59 -307h-559l-51 -266h444l-61 -307h-445l-53 -277h588l-60 -307h-946zM504 1866h338l104 -307h-262z" />
<glyph unicode="&#xc9;" horiz-adv-x="1204" d="M53 0l287 1464h915l-59 -307h-559l-51 -266h444l-61 -307h-445l-53 -277h588l-60 -307h-946zM678 1559l227 307h363l-303 -307h-287z" />
<glyph unicode="&#xca;" horiz-adv-x="1204" d="M53 0l287 1464h915l-59 -307h-559l-51 -266h444l-61 -307h-445l-53 -277h588l-60 -307h-946zM446 1559l265 307h344l141 -307h-266l-64 167h-4l-129 -167h-287z" />
<glyph unicode="&#xcb;" horiz-adv-x="1204" d="M53 0l287 1464h915l-59 -307h-559l-51 -266h444l-61 -307h-445l-53 -277h588l-60 -307h-946zM494 1579l57 287h258l-57 -287h-258zM922 1579l57 287h258l-57 -287h-258z" />
<glyph unicode="&#xcc;" horiz-adv-x="702" d="M53 0l285 1464h358l-284 -1464h-359zM209 1866h338l104 -307h-262z" />
<glyph unicode="&#xcd;" horiz-adv-x="702" d="M53 0l285 1464h358l-284 -1464h-359zM381 1559l227 307h363l-303 -307h-287z" />
<glyph unicode="&#xce;" horiz-adv-x="702" d="M53 0l285 1464h358l-284 -1464h-359zM150 1559l264 307h344l141 -307h-266l-64 167h-4l-129 -167h-286z" />
<glyph unicode="&#xcf;" horiz-adv-x="702" d="M53 0l285 1464h358l-284 -1464h-359zM197 1579l57 287h258l-57 -287h-258zM625 1579l57 287h258l-57 -287h-258z" />
<glyph unicode="&#xd0;" horiz-adv-x="1566" d="M92 582l55 286h117l115 596h469q319 0 498.5 -152.5t179.5 -426.5q0 -182 -63.5 -344.5t-175 -281.5t-272.5 -189t-347 -70h-572l113 582h-117zM514 307h148q147 0 261 74t174 197.5t60 273.5q0 149 -87 227t-243 78h-147l-57 -289h213l-56 -286h-213z" />
<glyph unicode="&#xd1;" horiz-adv-x="1566" d="M53 0l285 1464h348l272 -684q17 -43 35.5 -105.5t28.5 -103.5l10 -41h4q15 158 33 250l133 684h359l-285 -1464h-346l-275 682q-17 43 -36 105.5t-29 103.5l-10 41h-5q-12 -158 -30 -250l-133 -682h-359zM569 1559q64 313 305 313q35 0 64 -12.5t48.5 -31t36.5 -36.5 t35.5 -30.5t37.5 -12.5q69 0 90 117h231q-30 -152 -106.5 -233t-196.5 -81q-33 0 -62 12.5t-49 31t-38 36.5t-37 30.5t-37 12.5q-66 0 -90 -116h-232z" />
<glyph unicode="&#xd2;" horiz-adv-x="1671" d="M86 629q0 170 71.5 329.5t188.5 275.5t275 185.5t323 69.5q310 0 500 -179t190 -460q0 -173 -72.5 -335.5t-191 -280t-276 -188.5t-320.5 -71q-155 0 -284.5 49t-217.5 135.5t-137 207.5t-49 262zM455 649q0 -155 90 -250.5t233 -95.5q89 0 177 41t156 110t110.5 167.5 t42.5 205.5q0 150 -90.5 242t-233.5 92q-91 0 -179.5 -40t-155.5 -107.5t-108.5 -163.5t-41.5 -201zM690 1866h338l105 -307h-263z" />
<glyph unicode="&#xd3;" horiz-adv-x="1671" d="M86 629q0 170 71.5 329.5t188.5 275.5t275 185.5t323 69.5q310 0 500 -179t190 -460q0 -173 -72.5 -335.5t-191 -280t-276 -188.5t-320.5 -71q-155 0 -284.5 49t-217.5 135.5t-137 207.5t-49 262zM455 649q0 -155 90 -250.5t233 -95.5q89 0 177 41t156 110t110.5 167.5 t42.5 205.5q0 150 -90.5 242t-233.5 92q-91 0 -179.5 -40t-155.5 -107.5t-108.5 -163.5t-41.5 -201zM864 1559l228 307h362l-303 -307h-287z" />
<glyph unicode="&#xd4;" horiz-adv-x="1671" d="M86 629q0 170 71.5 329.5t188.5 275.5t275 185.5t323 69.5q310 0 500 -179t190 -460q0 -173 -72.5 -335.5t-191 -280t-276 -188.5t-320.5 -71q-155 0 -284.5 49t-217.5 135.5t-137 207.5t-49 262zM455 649q0 -155 90 -250.5t233 -95.5q89 0 177 41t156 110t110.5 167.5 t42.5 205.5q0 150 -90.5 242t-233.5 92q-91 0 -179.5 -40t-155.5 -107.5t-108.5 -163.5t-41.5 -201zM633 1559l264 307h344l141 -307h-266l-63 167h-4l-129 -167h-287z" />
<glyph unicode="&#xd5;" horiz-adv-x="1671" d="M86 629q0 170 71.5 329.5t188.5 275.5t275 185.5t323 69.5q310 0 500 -179t190 -460q0 -173 -72.5 -335.5t-191 -280t-276 -188.5t-320.5 -71q-155 0 -284.5 49t-217.5 135.5t-137 207.5t-49 262zM455 649q0 -155 90 -250.5t233 -95.5q89 0 177 41t156 110t110.5 167.5 t42.5 205.5q0 150 -90.5 242t-233.5 92q-91 0 -179.5 -40t-155.5 -107.5t-108.5 -163.5t-41.5 -201zM623 1559q64 313 305 313q35 0 64 -12.5t48.5 -31t36 -36.5t35 -30.5t37.5 -12.5q69 0 90 117h231q-30 -152 -106.5 -233t-196.5 -81q-33 0 -62 12.5t-49 31t-38 36.5 t-37 30.5t-37 12.5q-66 0 -90 -116h-231z" />
<glyph unicode="&#xd6;" horiz-adv-x="1671" d="M86 629q0 170 71.5 329.5t188.5 275.5t275 185.5t323 69.5q310 0 500 -179t190 -460q0 -173 -72.5 -335.5t-191 -280t-276 -188.5t-320.5 -71q-155 0 -284.5 49t-217.5 135.5t-137 207.5t-49 262zM455 649q0 -155 90 -250.5t233 -95.5q89 0 177 41t156 110t110.5 167.5 t42.5 205.5q0 150 -90.5 242t-233.5 92q-91 0 -179.5 -40t-155.5 -107.5t-108.5 -163.5t-41.5 -201zM680 1579l57 287h258l-57 -287h-258zM1108 1579l57 287h258l-57 -287h-258z" />
<glyph unicode="&#xd7;" d="M125 188l373 400l-373 401l188 189l367 -394l369 394l188 -189l-375 -401l375 -400l-188 -188l-369 393l-367 -393z" />
<glyph unicode="&#xd8;" horiz-adv-x="1679" d="M92 629q0 170 71.5 329.5t188.5 275.5t275 185.5t323 69.5q221 0 391 -98l121 131l133 -107l-120 -131q165 -173 165 -434q0 -173 -72.5 -335.5t-191 -280t-276 -188.5t-320.5 -71q-242 0 -415 115l-136 -147l-133 108l142 152q-146 176 -146 426zM461 649q0 -96 35 -168 l600 647q-71 33 -150 33q-91 0 -179.5 -40t-155.5 -107.5t-108.5 -163.5t-41.5 -201zM608 350q74 -47 176 -47q89 0 177 41t156 110t110.5 167.5t42.5 205.5q0 102 -47 185z" />
<glyph unicode="&#xd9;" horiz-adv-x="1529" d="M129 430q0 58 12 119l178 915h359l-180 -925q-6 -30 -6 -58q0 -87 57 -132.5t158 -45.5q120 0 198 61t101 175l180 925h358l-182 -936q-50 -251 -228.5 -402t-439.5 -151q-116 0 -217.5 30t-179.5 86t-123 143.5t-45 195.5zM623 1866h338l104 -307h-262z" />
<glyph unicode="&#xda;" horiz-adv-x="1529" d="M129 430q0 58 12 119l178 915h359l-180 -925q-6 -30 -6 -58q0 -87 57 -132.5t158 -45.5q120 0 198 61t101 175l180 925h358l-182 -936q-50 -251 -228.5 -402t-439.5 -151q-116 0 -217.5 30t-179.5 86t-123 143.5t-45 195.5zM797 1559l227 307h362l-303 -307h-286z" />
<glyph unicode="&#xdb;" horiz-adv-x="1529" d="M129 430q0 58 12 119l178 915h359l-180 -925q-6 -30 -6 -58q0 -87 57 -132.5t158 -45.5q120 0 198 61t101 175l180 925h358l-182 -936q-50 -251 -228.5 -402t-439.5 -151q-116 0 -217.5 30t-179.5 86t-123 143.5t-45 195.5zM565 1559l264 307h345l141 -307h-266l-64 167 h-4l-129 -167h-287z" />
<glyph unicode="&#xdc;" horiz-adv-x="1529" d="M129 430q0 58 12 119l178 915h359l-180 -925q-6 -30 -6 -58q0 -87 57 -132.5t158 -45.5q120 0 198 61t101 175l180 925h358l-182 -936q-50 -251 -228.5 -402t-439.5 -151q-116 0 -217.5 30t-179.5 86t-123 143.5t-45 195.5zM612 1579l58 287h258l-58 -287h-258z M1040 1579l58 287h258l-58 -287h-258z" />
<glyph unicode="&#xdd;" horiz-adv-x="1292" d="M147 1464h388l98 -352q12 -44 23.5 -97t17.5 -83l6 -31h4q63 109 129 211l223 352h430l-659 -878l-113 -586h-358l117 600zM662 1559l227 307h362l-303 -307h-286z" />
<glyph unicode="&#xde;" horiz-adv-x="1302" d="M53 0l285 1464h358l-43 -217h203q132 0 223 -45q102 -49 157.5 -146t55.5 -225q0 -181 -92.5 -328.5t-243.5 -217.5q-104 -49 -225 -49h-274l-45 -236h-359zM518 543h174q78 0 121 30q51 34 81 94t30 132q0 66 -38 103.5t-110 37.5h-182z" />
<glyph unicode="&#xdf;" horiz-adv-x="1306" d="M14 0l213 1100q18 94 71.5 169.5t128.5 122.5t164 72t183 25q192 0 320.5 -95.5t128.5 -250.5q0 -66 -22 -120.5t-53.5 -89.5t-63.5 -63.5t-54 -57t-22 -56.5q0 -31 20.5 -63.5t49.5 -63.5t58 -65.5t49.5 -82.5t20.5 -102q0 -108 -62.5 -199.5t-163.5 -142.5t-214 -51 q-82 0 -151 10.5t-97 21.5l-29 11l58 284q75 -32 186 -32q46 0 82.5 22.5t36.5 73.5q0 31 -21 63t-51 62t-60.5 62.5t-51.5 75.5t-21 89q0 58 22.5 109t55 86t64.5 65.5t54.5 60.5t22.5 58q0 39 -28.5 62.5t-79.5 23.5q-70 0 -120.5 -32.5t-64.5 -106.5l-204 -1055h-355z " />
<glyph unicode="&#xe0;" horiz-adv-x="1138" d="M-12 248q0 77 31 141t85 107.5t121 75.5t145.5 50t151 26.5t144.5 8.5h14q4 28 4 39q0 97 -133 97q-59 0 -135.5 -24.5t-123.5 -48.5l-46 -24l-76 267q9 5 25 12.5t66 27.5t101 35.5t122.5 28t136.5 12.5q58 0 112.5 -9t111 -33t98.5 -60.5t68.5 -96.5t26.5 -137 q0 -40 -10 -102l-123 -641h-323l12 63q3 16 7.5 32.5t7.5 24.5l3 9h-4q-5 -6 -13.5 -16.5t-39 -37t-64 -47t-86.5 -37t-108 -16.5q-127 0 -218 73t-91 200zM340 1464h338l104 -307h-262zM344 313q0 -31 21.5 -49t64.5 -18q67 0 132 59.5t77 126.5l4 23h-33q-37 0 -75 -5 t-85 -18.5t-76.5 -44t-29.5 -74.5z" />
<glyph unicode="&#xe1;" horiz-adv-x="1138" d="M-12 248q0 77 31 141t85 107.5t121 75.5t145.5 50t151 26.5t144.5 8.5h14q4 28 4 39q0 97 -133 97q-59 0 -135.5 -24.5t-123.5 -48.5l-46 -24l-76 267q9 5 25 12.5t66 27.5t101 35.5t122.5 28t136.5 12.5q58 0 112.5 -9t111 -33t98.5 -60.5t68.5 -96.5t26.5 -137 q0 -40 -10 -102l-123 -641h-323l12 63q3 16 7.5 32.5t7.5 24.5l3 9h-4q-5 -6 -13.5 -16.5t-39 -37t-64 -47t-86.5 -37t-108 -16.5q-127 0 -218 73t-91 200zM344 313q0 -31 21.5 -49t64.5 -18q67 0 132 59.5t77 126.5l4 23h-33q-37 0 -75 -5t-85 -18.5t-76.5 -44t-29.5 -74.5 zM514 1157l227 307h363l-303 -307h-287z" />
<glyph unicode="&#xe2;" horiz-adv-x="1138" d="M-12 248q0 77 31 141t85 107.5t121 75.5t145.5 50t151 26.5t144.5 8.5h14q4 28 4 39q0 97 -133 97q-59 0 -135.5 -24.5t-123.5 -48.5l-46 -24l-76 267q9 5 25 12.5t66 27.5t101 35.5t122.5 28t136.5 12.5q58 0 112.5 -9t111 -33t98.5 -60.5t68.5 -96.5t26.5 -137 q0 -40 -10 -102l-123 -641h-323l12 63q3 16 7.5 32.5t7.5 24.5l3 9h-4q-5 -6 -13.5 -16.5t-39 -37t-64 -47t-86.5 -37t-108 -16.5q-127 0 -218 73t-91 200zM283 1157l264 307h344l141 -307h-266l-64 168h-4l-129 -168h-286zM344 313q0 -31 21.5 -49t64.5 -18q67 0 132 59.5 t77 126.5l4 23h-33q-37 0 -75 -5t-85 -18.5t-76.5 -44t-29.5 -74.5z" />
<glyph unicode="&#xe3;" horiz-adv-x="1138" d="M-12 248q0 77 31 141t85 107.5t121 75.5t145.5 50t151 26.5t144.5 8.5h14q4 28 4 39q0 97 -133 97q-59 0 -135.5 -24.5t-123.5 -48.5l-46 -24l-76 267q9 5 25 12.5t66 27.5t101 35.5t122.5 28t136.5 12.5q58 0 112.5 -9t111 -33t98.5 -60.5t68.5 -96.5t26.5 -137 q0 -40 -10 -102l-123 -641h-323l12 63q3 16 7.5 32.5t7.5 24.5l3 9h-4q-5 -6 -13.5 -16.5t-39 -37t-64 -47t-86.5 -37t-108 -16.5q-127 0 -218 73t-91 200zM272 1157q64 313 306 313q35 0 64 -12.5t48.5 -30.5t36 -36t35 -30.5t37.5 -12.5q69 0 90 116h231 q-30 -152 -106.5 -232.5t-196.5 -80.5q-33 0 -62 12.5t-49 30.5t-38 36.5t-37 31t-37 12.5q-66 0 -90 -117h-232zM344 313q0 -31 21.5 -49t64.5 -18q67 0 132 59.5t77 126.5l4 23h-33q-37 0 -75 -5t-85 -18.5t-76.5 -44t-29.5 -74.5z" />
<glyph unicode="&#xe4;" horiz-adv-x="1138" d="M-12 248q0 77 31 141t85 107.5t121 75.5t145.5 50t151 26.5t144.5 8.5h14q4 28 4 39q0 97 -133 97q-59 0 -135.5 -24.5t-123.5 -48.5l-46 -24l-76 267q9 5 25 12.5t66 27.5t101 35.5t122.5 28t136.5 12.5q58 0 112.5 -9t111 -33t98.5 -60.5t68.5 -96.5t26.5 -137 q0 -40 -10 -102l-123 -641h-323l12 63q3 16 7.5 32.5t7.5 24.5l3 9h-4q-5 -6 -13.5 -16.5t-39 -37t-64 -47t-86.5 -37t-108 -16.5q-127 0 -218 73t-91 200zM330 1178l57 286h258l-57 -286h-258zM344 313q0 -31 21.5 -49t64.5 -18q67 0 132 59.5t77 126.5l4 23h-33 q-37 0 -75 -5t-85 -18.5t-76.5 -44t-29.5 -74.5zM758 1178l57 286h258l-57 -286h-258z" />
<glyph unicode="&#xe5;" horiz-adv-x="1138" d="M-12 248q0 77 31 141t85 107.5t121 75.5t145.5 50t151 26.5t144.5 8.5h14q4 28 4 39q0 97 -133 97q-59 0 -135.5 -24.5t-123.5 -48.5l-46 -24l-76 267q9 5 25 12.5t66 27.5t101 35.5t122.5 28t136.5 12.5q58 0 112.5 -9t111 -33t98.5 -60.5t68.5 -96.5t26.5 -137 q0 -40 -10 -102l-123 -641h-323l12 63q3 16 7.5 32.5t7.5 24.5l3 9h-4q-5 -6 -13.5 -16.5t-39 -37t-64 -47t-86.5 -37t-108 -16.5q-127 0 -218 73t-91 200zM344 313q0 -31 21.5 -49t64.5 -18q67 0 132 59.5t77 126.5l4 23h-33q-37 0 -75 -5t-85 -18.5t-76.5 -44t-29.5 -74.5 zM469 1278q0 96 77 148.5t173 52.5q85 0 145 -40.5t60 -115.5q0 -48 -23.5 -87t-61.5 -61.5t-81 -34.5t-86 -12q-84 0 -143.5 39t-59.5 111zM625 1284q0 -53 57 -53q36 0 62 25t26 63q0 26 -15.5 41.5t-43.5 15.5q-35 0 -60.5 -26t-25.5 -66z" />
<glyph unicode="&#xe6;" horiz-adv-x="1744" d="M-12 248q0 77 31 141t85 107.5t121 75.5t145.5 50t151 26.5t144.5 8.5h14q4 20 4 41q0 48 -36.5 71.5t-96.5 23.5q-59 0 -135.5 -24.5t-123.5 -48.5l-46 -24l-76 267q9 5 25 12.5t66 27.5t101 35.5t122.5 28t136.5 1